<svg width="206" height="46" viewBox="0 0 206 46" fill="none" xmlns="http://www.w3.org/2000/svg">
<g clip-path="url(#clip0)">
<path fill-rule="evenodd" clip-rule="evenodd" d="M23.175 0C10.4058 0 0 10.3272 0 23C0 35.6728 10.4058 46 23.175 46C35.9442 46 46.35 35.6728 46.35 23C46.35 10.3272 35.9771 0 23.175 0ZM23.175 40.8527C13.2616 40.8527 5.2193 32.8711 5.2193 23.0326C5.2193 13.194 13.2616 5.21246 23.175 5.21246C33.0884 5.21246 41.1307 13.194 41.1307 23.0326C41.1307 32.8711 33.0884 40.8527 23.175 40.8527ZM22.0917 20.2957L18.3824 16.647L15.6579 19.3509L13.0318 16.7121L9.32252 20.3609L11.9814 22.9997L9.19122 25.7688L12.9005 29.4501L15.6579 26.681L18.5137 29.5153L22.223 25.834L19.3672 22.9997L22.0917 20.2957ZM37.0602 20.1985L34.3357 22.9025L37.1915 25.7368L33.4822 29.3855L30.6264 26.5512L27.8362 29.3203L24.1597 25.639L26.9499 22.9025L24.291 20.2637L27.9675 16.5824L30.6264 19.2212L33.3509 16.5172L37.0602 20.1985Z" fill="#EC1C24"/>
<path fill-rule="evenodd" clip-rule="evenodd" d="M58.485 15.6741C58.485 13.7951 59.037 12.3468 60.141 11.327C61.245 10.3071 62.8468 9.7962 64.9464 9.7962C65.3839 9.7962 65.713 9.8065 65.9317 9.82299V13.8034L65.4109 13.7766C64.6444 13.7766 64.0862 13.9393 63.7404 14.2649C63.3925 14.5883 63.2009 15.1137 63.1655 15.8348H65.9338V19.7348H63.1676V30.9487H58.485V19.7369H56.6499V15.8368H58.485V15.6741ZM204.246 17.242C205.415 18.369 206 20.0439 206 22.2608V30.9467H201.553V22.9365C201.553 21.7333 201.286 20.8351 200.755 20.2438C200.222 19.6525 199.453 19.3558 198.445 19.3558C197.322 19.3558 196.431 19.6999 195.764 20.3859C195.1 21.072 194.766 22.0918 194.766 23.4454V30.9467H190.319V10.0209H194.766V17.3533C195.356 16.7702 196.068 16.3231 196.906 16.0141C197.741 15.703 198.653 15.5485 199.643 15.5485C201.542 15.5485 203.077 16.113 204.246 17.242ZM169.633 17.2419C170.802 18.3688 171.387 20.0438 171.387 22.2606V30.9466H166.94V22.9364C166.94 21.7332 166.673 20.835 166.142 20.2437C165.609 19.6524 164.84 19.3557 163.832 19.3557C162.709 19.3557 161.818 19.6998 161.151 20.3858C160.487 21.0719 160.153 22.0917 160.153 23.4453V30.9466H155.706V15.775H159.953V17.5509C160.543 16.9123 161.274 16.4178 162.149 16.0696C163.024 15.7214 163.982 15.5484 165.03 15.5484C166.927 15.5484 168.465 16.1129 169.633 17.2419ZM83.4871 15.777V30.9466H79.2399V29.1974C78.138 30.5139 76.5403 31.1712 74.449 31.1712C73.0055 31.1712 71.6974 30.8518 70.5288 30.2131C69.3603 29.5745 68.4438 28.6618 67.7772 27.4771C67.1107 26.2925 66.7795 24.9204 66.7795 23.3608C66.7795 21.8012 67.1107 20.4291 67.7772 19.2444C68.4417 18.0598 69.3603 17.1492 70.5288 16.5084C71.6974 15.8697 73.0055 15.5504 74.449 15.5504C76.407 15.5504 77.9359 16.1623 79.0399 17.384V15.777H83.4871ZM78.013 26.4202C78.7545 25.6579 79.1253 24.6402 79.1253 23.3608C79.1253 22.0834 78.7545 21.0636 78.013 20.3013C77.2714 19.539 76.3404 19.16 75.2197 19.16C74.0803 19.16 73.1388 19.5411 72.3973 20.3013C71.6557 21.0636 71.285 22.0834 71.285 23.3608C71.285 24.6402 71.6557 25.66 72.3973 26.4202C73.1388 27.1825 74.0782 27.5616 75.2197 27.5616C76.3383 27.5616 77.2714 27.1805 78.013 26.4202ZM89.3174 30.1699C88.0155 29.5024 86.999 28.5773 86.2658 27.3927C85.5347 26.208 85.1681 24.8648 85.1681 23.3608C85.1681 21.8568 85.5347 20.5135 86.2658 19.3289C86.9969 18.1443 88.0134 17.2192 89.3174 16.5517C90.6192 15.8842 92.0877 15.5504 93.7229 15.5504C95.3372 15.5504 96.7495 15.8842 97.9576 16.5517C99.1636 17.2192 100.043 18.1731 100.595 19.4134L97.1452 21.247C96.3474 19.8563 95.1956 19.16 93.6958 19.16C92.5356 19.16 91.5774 19.537 90.8171 20.2869C90.0568 21.0389 89.6777 22.0628 89.6777 23.3608C89.6777 24.6587 90.0568 25.6827 90.8171 26.4347C91.5774 27.1866 92.5377 27.5616 93.6958 27.5616C95.2164 27.5616 96.3662 26.8652 97.1452 25.4746L100.595 27.335C100.043 28.5382 99.1636 29.4776 97.9576 30.1555C96.7495 30.8312 95.3393 31.1712 93.7229 31.1712C92.0857 31.1712 90.6172 30.8374 89.3174 30.1699ZM105.638 24.601H117.242C117.298 23.8676 117.327 23.472 117.329 23.4185C117.329 21.8383 116.981 20.4538 116.288 19.2588C115.592 18.0639 114.638 17.1471 113.422 16.5084C112.205 15.8697 110.847 15.5504 109.345 15.5504C107.806 15.5504 106.412 15.8842 105.169 16.5517C103.923 17.2192 102.944 18.1504 102.232 19.3433C101.519 20.5362 101.163 21.8753 101.163 23.3608C101.163 24.8648 101.524 26.208 102.246 27.3927C102.969 28.5773 103.994 29.5024 105.325 30.1699C106.656 30.8374 108.187 31.1712 109.916 31.1712C112.691 31.1712 114.801 30.3532 116.244 28.7174L113.878 26.1792C113.345 26.6881 112.77 27.0589 112.153 27.2938C111.534 27.5286 110.826 27.6461 110.028 27.6461C108.868 27.6461 107.9 27.3741 107.121 26.8282C106.339 26.2843 105.846 25.5405 105.638 24.601ZM105.581 22.034C105.733 21.0574 106.152 20.2869 106.835 19.7224C107.521 19.1579 108.366 18.8756 109.374 18.8756C110.362 18.8756 111.199 19.162 111.882 19.7348C112.566 20.3096 112.984 21.076 113.136 22.034H105.581ZM132.066 16.5208C133.235 17.1698 134.152 18.0825 134.818 19.2568C135.483 20.4311 135.816 21.7991 135.816 23.3587C135.816 24.9204 135.483 26.2863 134.818 27.4627C134.154 28.6371 133.235 29.5498 132.066 30.1987C130.898 30.8477 129.6 31.1712 128.175 31.1712C126.217 31.1712 124.678 30.5613 123.557 29.3375V36.4165H119.11V15.775H123.358V17.5241C124.459 16.2076 126.065 15.5504 128.175 15.5504C129.6 15.5484 130.896 15.8739 132.066 16.5208ZM130.213 26.4202C130.944 25.658 131.31 24.6402 131.31 23.3608C131.31 22.0834 130.944 21.0636 130.213 20.3013C129.481 19.539 128.544 19.16 127.405 19.16C126.265 19.16 125.328 19.5411 124.597 20.3013C123.866 21.0636 123.499 22.0834 123.499 23.3608C123.499 24.6402 123.866 25.66 124.597 26.4202C125.328 27.1825 126.265 27.5616 127.405 27.5616C128.544 27.5616 129.481 27.1805 130.213 26.4202ZM153.377 30.9468V15.7752H148.926V23.2745C148.926 24.628 148.603 25.6479 147.958 26.3339C147.31 27.022 146.456 27.364 145.391 27.364C143.319 27.364 142.284 26.1423 142.284 23.6989V15.7752H137.836V24.3479C137.836 26.6018 138.426 28.3056 139.605 29.4511C140.784 30.5986 142.381 31.1714 144.396 31.1714C145.345 31.1714 146.231 30.9983 147.047 30.6501C147.864 30.304 148.568 29.8013 149.157 29.142V30.9468H153.377ZM174.395 27.3927C175.128 28.5773 176.144 29.5024 177.446 30.1699C178.748 30.8374 180.217 31.1712 181.852 31.1712C183.468 31.1712 184.878 30.8312 186.087 30.1555C187.293 29.4776 188.172 28.5382 188.724 27.335L185.274 25.4746C184.495 26.8652 183.345 27.5616 181.825 27.5616C180.667 27.5616 179.706 27.1866 178.946 26.4347C178.186 25.6827 177.807 24.6587 177.807 23.3608C177.807 22.0628 178.186 21.0389 178.946 20.2869C179.706 19.537 180.665 19.16 181.825 19.16C183.325 19.16 184.476 19.8563 185.274 21.247L188.724 19.4134C188.172 18.1731 187.293 17.2192 186.087 16.5517C184.878 15.8842 183.466 15.5504 181.852 15.5504C180.217 15.5504 178.748 15.8842 177.446 16.5517C176.142 17.2192 175.126 18.1443 174.395 19.3289C173.664 20.5135 173.297 21.8568 173.297 23.3608C173.297 24.8648 173.664 26.208 174.395 27.3927Z" fill="white"/>
</g>
<defs>
<clipPath id="clip0">
<rect width="206" height="46" fill="white"/>
</clipPath>
</defs>
</svg>
