couleur texte header : #959183
couleur violette TITRE: #8f3eff
couleur violette p : #9584c6
couleur nom streamer : #eae8e5
couleur bg main : #00000
couleur violette bg main-2 : #151221

couleur bg footer : #0f100f

font : Roboto condensed - 700, sans serif 
connect your .... :-400 24px
h1 : 48px
streamer items 28px
online offline 12px
hours -400 16px

couleur grise bg main-3 : #151817